…
separate_files = 
  tibble(
    file_name = list.files("./data"))

longitudal_study = separate_files%>%
  mutate(patient_data = map(file_name, load_file))%>%
  unnest()%>%
  gather(key = week, value = observation, week_1:week_8)%>%
  separate(file_name, into = c("arm", "subject_id", "csv"), sep = "[_.]")%>%
  separate(week, into = c("remove", "week"), sep = "_")%>%
  select(-c(csv, remove))
longitudal_study
```

    ## # A tibble: 160 x 4
    ##    arm   subject_id week  observation
    ##    <chr> <chr>      <chr>       <dbl>
    ##  1 con   01         1            0.2 
    ##  2 con   02         1            1.13
    ##  3 con   03         1            1.77
    ##  4 con   04         1            1.04
    ##  5 con   05         1            0.47
    ##  6 con   06         1            2.37
    ##  7 con   07         1            0.03
    ##  8 con   08         1           -0.08
    ##  9 con   09         1            0.08
    ## 10 con   10         1            2.14
    ## # ... with 150 more rows
…
tidy_homicide_data = 
  homicide_data%>%
  mutate(city_state = str_c(city, ", ", state))%>%
  select(city_state, everything())%>%
  nest(uid:disposition)%>%
  mutate(total_homicides = map(data, homicides_number),
         unsolved_homicides = map(data, unsolved_number))%>%
  mutate(total_homicides = as.integer(total_homicides),
         unsolved_homicides = as.integer(unsolved_homicides))

tidy_homicide_data
```

    ## # A tibble: 51 x 4
    ##    city_state      data                  total_homicides unsolved_homicides
    ##    <chr>           <list>                          <int>              <int>
    ##  1 Albuquerque, NM <tibble [378 x 12]>               378                146
    ##  2 Atlanta, GA     <tibble [973 x 12]>               973                373
    ##  3 Baltimore, MD   <tibble [2,827 x 12]>            2827               1825
    ##  4 Baton Rouge, LA <tibble [424 x 12]>               424                196
    ##  5 Birmingham, AL  <tibble [800 x 12]>               800                347
    ##  6 Boston, MA      <tibble [614 x 12]>               614                310
    ##  7 Buffalo, NY     <tibble [521 x 12]>               521                319
    ##  8 Charlotte, NC   <tibble [687 x 12]>               687                206
    ##  9 Chicago, IL     <tibble [5,535 x 12]>            5535               4073
    ## 10 Cincinnati, OH  <tibble [694 x 12]>               694                309
    ## # ... with 41 more rows
…
